test/logs/TOP_core_MODE_full_MEM_DEPTH_1024_READ_LAT_24_RANK_BITS_2.log
VCD info: dumpfile tb_ddr2_controller.iverilog.vcd opened for output.
[23000] INITDDR asserted, waiting for READY (init takes ~100k cycles)...
[665000] Detected AUTO REFRESH command on DDR2 bus.
[867000] Detected AUTO REFRESH command on DDR2 bus.
[1899000] READY asserted at cycle 938
[1901000] NOTFULL=1 (FIFOs can accept commands)
[1903000] CTRL: ENQUEUE CMD addr=0 cmd=10 sz=0
[1905000] CTRL: ENQUEUE CMD addr=0 cmd=10 sz=0
[1905000] SCW issued: addr=0 data=0xa5a5
[1907000] PROT: IDLE sees cmdFIFO non-empty (need_refresh=0)
[1909000] PROT: GETCMD state cnt=2
[1911000] PROT: GETCMD state cnt=1
[1913000] PROT: GETCMD state cnt=0
[1913000] PROT: GETCMD addr=0 cmd=10 sz=0 rank_sel=0
[1929000] DQS_MON: WRITE detected, starting DQS observation window.
[1929000] MEM: WRITE cmd received rank=0 bank=0 row=0 col=1
[1945000] MEM: WRITE burst committed base_idx=1 data=0x0000
[1995000] DQS_MON: window complete, edge_cnt=7.
[2327000] CTRL: ENQUEUE CMD addr=0 cmd=1 sz=0
[2329000] CTRL: ENQUEUE CMD addr=0 cmd=1 sz=0
[2329000] SCR issued: addr=0
[2331000] PROT: IDLE sees cmdFIFO non-empty (need_refresh=0)
[2333000] PROT: GETCMD state cnt=2
[2335000] PROT: GETCMD state cnt=1
[2337000] PROT: GETCMD state cnt=0
[2337000] PROT: GETCMD addr=0 cmd=1 sz=0 rank_sel=0
[2351000] PROT: ISSUE_READ bank=0 row=0 col=0 cs=1 ras=1 cas=1 we=1
[2353000] MEM: READ decode rank=3 bank=0 row=0 col=1
[2353000] MEM: READ cmd received rank=0 bank=0 row=0 col=1
[2401000] MEM: READ beat=1 rank=3 idx=2 data=0x0000
[2403000] MEM: READ beat=2 rank=3 idx=3 data=0x0000
[2405000] READ observed: RADDR=0 DOUT=0x0000
[2405000] MEM: READ beat=3 rank=3 idx=4 data=0x0000
[2407000] READ observed: RADDR=1 DOUT=0x0000
[2407000] MEM: READ beat=4 rank=3 idx=5 data=0x0000
[2409000] READ observed: RADDR=2 DOUT=0x0000
[2409000] MEM: READ beat=5 rank=3 idx=6 data=0x0000
[2411000] MEM: READ beat=6 rank=3 idx=7 data=0x0000
[2413000] MEM: READ beat=7 rank=3 idx=8 data=0x0000
[2509000] CTRL: ENQUEUE CMD addr=1 cmd=10 sz=0
[2511000] CTRL: ENQUEUE CMD addr=1 cmd=10 sz=0
[2511000] SCW issued: addr=1 data=0xa4a5
[2513000] PROT: IDLE sees cmdFIFO non-empty (need_refresh=0)
[2515000] PROT: GETCMD state cnt=2
[2517000] PROT: GETCMD state cnt=1
[2519000] PROT: GETCMD state cnt=0
[2519000] PROT: GETCMD addr=1 cmd=10 sz=0 rank_sel=0
[2535000] DQS_MON: WRITE detected, starting DQS observation window.
[2535000] MEM: WRITE cmd received rank=3 bank=0 row=0 col=3
[2551000] MEM: WRITE burst committed base_idx=3 data=0x0000
[2601000] DQS_MON: window complete, edge_cnt=7.
[2933000] CTRL: ENQUEUE CMD addr=1 cmd=1 sz=0
[2935000] CTRL: ENQUEUE CMD addr=1 cmd=1 sz=0
[2935000] SCR issued: addr=1
[2937000] PROT: IDLE sees cmdFIFO non-empty (need_refresh=0)
[2939000] PROT: GETCMD state cnt=2
[2941000] READ observed: RADDR=4 DOUT=0x0000
[2941000] PROT: GETCMD state cnt=1
[2943000] PROT: GETCMD state cnt=0
[2943000] PROT: GETCMD addr=1 cmd=1 sz=0 rank_sel=0
[2943000] READ observed: RADDR=5 DOUT=0x0000
[2945000] READ observed: RADDR=6 DOUT=0x0000
[2947000] READ observed: RADDR=6 DOUT=0x0000
[2957000] PROT: ISSUE_READ bank=0 row=0 col=1 cs=1 ras=1 cas=1 we=1
[2959000] MEM: READ decode rank=3 bank=0 row=0 col=3
[2959000] MEM: READ cmd received rank=3 bank=0 row=0 col=3
[3007000] MEM: READ beat=1 rank=3 idx=4 data=0x0000
[3009000] MEM: READ beat=2 rank=3 idx=5 data=0x0000
[3011000] MEM: READ beat=3 rank=3 idx=6 data=0x0000
[3013000] MEM: READ beat=4 rank=3 idx=7 data=0x0000
[3015000] MEM: READ beat=5 rank=3 idx=8 data=0x0000
[3017000] MEM: READ beat=6 rank=3 idx=9 data=0x0000
[3019000] MEM: READ beat=7 rank=3 idx=10 data=0x0000
[3045000] CTRL: ENQUEUE CMD addr=128 cmd=10 sz=0
[3047000] CTRL: ENQUEUE CMD addr=128 cmd=10 sz=0
[3047000] SCW issued: addr=128 data=0x25a5
[3049000] PROT: IDLE sees cmdFIFO non-empty (need_refresh=0)
[3051000] PROT: GETCMD state cnt=2
[3053000] PROT: GETCMD state cnt=1
[3055000] PROT: GETCMD state cnt=0
[3055000] PROT: GETCMD addr=128 cmd=10 sz=0 rank_sel=0
[3071000] DQS_MON: WRITE detected, starting DQS observation window.
[3071000] MEM: WRITE cmd received rank=3 bank=0 row=0 col=65
[3087000] MEM: WRITE burst committed base_idx=1 data=0x0000
[3137000] DQS_MON: window complete, edge_cnt=7.
[3469000] CTRL: ENQUEUE CMD addr=128 cmd=1 sz=0
[3471000] CTRL: ENQUEUE CMD addr=128 cmd=1 sz=0
[3471000] SCR issued: addr=128
[3473000] PROT: IDLE sees cmdFIFO non-empty (need_refresh=0)
[3475000] PROT: GETCMD state cnt=2
[3477000] READ observed: RADDR=1 DOUT=0xzzzz
[3477000] PROT: GETCMD state cnt=1
[3479000] PROT: GETCMD state cnt=0
[3479000] PROT: GETCMD addr=128 cmd=1 sz=0 rank_sel=0
[3479000] READ observed: RADDR=1 DOUT=0x0000
[3481000] READ observed: RADDR=2 DOUT=0x0000
[3483000] READ observed: RADDR=2 DOUT=0x0000
[3493000] PROT: ISSUE_READ bank=0 row=0 col=32 cs=1 ras=1 cas=1 we=1
[3495000] MEM: READ decode rank=3 bank=0 row=0 col=65
[3495000] MEM: READ cmd received rank=3 bank=0 row=0 col=65
[3543000] MEM: READ beat=1 rank=3 idx=2 data=0x0000
[3545000] MEM: READ beat=2 rank=3 idx=3 data=0x0000
[3547000] MEM: READ beat=3 rank=3 idx=4 data=0x0000
[3549000] MEM: READ beat=4 rank=3 idx=5 data=0x0000
[3551000] MEM: READ beat=5 rank=3 idx=6 data=0x0000
[3553000] MEM: READ beat=6 rank=3 idx=7 data=0x0000
[3555000] MEM: READ beat=7 rank=3 idx=8 data=0x0000
[3581000] CTRL: ENQUEUE CMD addr=512 cmd=10 sz=0
[3583000] CTRL: ENQUEUE CMD addr=512 cmd=10 sz=0
[3583000] SCW issued: addr=512 data=0xa5a7
[3585000] PROT: IDLE sees cmdFIFO non-empty (need_refresh=0)
[3587000] PROT: GETCMD state cnt=2
[3589000] PROT: GETCMD state cnt=1
[3591000] PROT: GETCMD state cnt=0
[3591000] PROT: GETCMD addr=512 cmd=10 sz=0 rank_sel=0
[3607000] DQS_MON: WRITE detected, starting DQS observation window.
[3607000] MEM: WRITE cmd received rank=3 bank=0 row=0 col=257
[3623000] MEM: WRITE burst committed base_idx=1 data=0x0000
[3673000] DQS_MON: window complete, edge_cnt=7.
[4005000] CTRL: ENQUEUE CMD addr=512 cmd=1 sz=0
[4007000] CTRL: ENQUEUE CMD addr=512 cmd=1 sz=0
[4007000] SCR issued: addr=512
[4009000] PROT: IDLE sees cmdFIFO non-empty (need_refresh=0)
[4011000] PROT: GETCMD state cnt=2
[4013000] READ observed: RADDR=4 DOUT=0x0000
[4013000] PROT: GETCMD state cnt=1
[4015000] PROT: GETCMD state cnt=0
[4015000] PROT: GETCMD addr=512 cmd=1 sz=0 rank_sel=0
[4015000] READ observed: RADDR=5 DOUT=0x0000
[4017000] READ observed: RADDR=6 DOUT=0x0000
[4019000] READ observed: RADDR=6 DOUT=0x0000
[4029000] PROT: ISSUE_READ bank=0 row=0 col=128 cs=1 ras=1 cas=1 we=1
[4031000] MEM: READ decode rank=3 bank=0 row=0 col=257
[4031000] MEM: READ cmd received rank=3 bank=0 row=0 col=257
[4079000] MEM: READ beat=1 rank=3 idx=2 data=0x0000
[4081000] MEM: READ beat=2 rank=3 idx=3 data=0x0000
[4083000] MEM: READ beat=3 rank=3 idx=4 data=0x0000
[4085000] MEM: READ beat=4 rank=3 idx=5 data=0x0000
[4087000] MEM: READ beat=5 rank=3 idx=6 data=0x0000
[4089000] MEM: READ beat=6 rank=3 idx=7 data=0x0000
[4091000] MEM: READ beat=7 rank=3 idx=8 data=0x0000
[4117000] CTRL: ENQUEUE CMD addr=32 cmd=100 sz=0
[4119000] CTRL: ENQUEUE CMD addr=32 cmd=100 sz=0
[4119000] BLW issued: base_addr=32 SZ=0 (nwords=8)
[4121000] PROT: IDLE sees cmdFIFO non-empty (need_refresh=0)
[4123000] PROT: GETCMD state cnt=2
[4125000] PROT: GETCMD state cnt=1
[4127000] PROT: GETCMD state cnt=0
[4127000] PROT: GETCMD addr=32 cmd=100 sz=0 rank_sel=0
[4157000] DQS_MON: WRITE detected, starting DQS observation window.
[4157000] MEM: WRITE cmd received rank=3 bank=0 row=0 col=17
[4173000] MEM: WRITE burst committed base_idx=17 data=0x0000
[4223000] DQS_MON: window complete, edge_cnt=7.
[5373000] CTRL: ENQUEUE CMD addr=32 cmd=11 sz=0
[5375000] CTRL: ENQUEUE CMD addr=32 cmd=11 sz=0
[5375000] BLR issued: base_addr=32 SZ=0 (expect 8 beats)
[5377000] PROT: IDLE sees cmdFIFO non-empty (need_refresh=0)
[5379000] PROT: GETCMD state cnt=2
[5381000] BLR beat (bus mode) observed: RADDR=8 DOUT=0xzzzz
[5381000] READ observed: RADDR=8 DOUT=0xzzzz
[5381000] PROT: GETCMD state cnt=1
[5383000] PROT: GETCMD state cnt=0
[5383000] PROT: GETCMD addr=32 cmd=11 sz=0 rank_sel=0
[5383000] READ observed: RADDR=128 DOUT=0xzzzz
[5383000] BLR beat (bus mode) observed: RADDR=128 DOUT=0xzzzz
[5385000] BLR beat (bus mode) observed: RADDR=128 DOUT=0x0000
[5385000] READ observed: RADDR=128 DOUT=0x0000
[5387000] READ observed: RADDR=129 DOUT=0x0000
[5387000] BLR beat (bus mode) observed: RADDR=129 DOUT=0x0000
[5389000] BLR beat (bus mode) observed: RADDR=130 DOUT=0x0000
[5389000] READ observed: RADDR=130 DOUT=0x0000
[5391000] READ observed: RADDR=131 DOUT=0x0000
[5391000] BLR beat (bus mode) observed: RADDR=131 DOUT=0x0000
[5393000] BLR beat (bus mode) observed: RADDR=132 DOUT=0x0000
[5393000] READ observed: RADDR=132 DOUT=0x0000
[5395000] READ observed: RADDR=133 DOUT=0x0000
[5395000] BLR beat (bus mode) observed: RADDR=133 DOUT=0x0000
[5397000] BLR beat (bus mode) observed: RADDR=134 DOUT=0x0000
[5397000] READ observed: RADDR=134 DOUT=0x0000
[5399000] READ observed: RADDR=135 DOUT=0xzzzz
[5399000] BLR beat (bus mode) observed: RADDR=135 DOUT=0xzzzz
[5401000] BLR beat (bus mode) observed: RADDR=512 DOUT=0xzzzz
[5401000] READ observed: RADDR=512 DOUT=0xzzzz
[5403000] READ observed: RADDR=512 DOUT=0x0000
[5403000] BLR beat (bus mode) observed: RADDR=512 DOUT=0x0000
[5405000] BLR beat (bus mode) observed: RADDR=513 DOUT=0x0000
[5405000] READ observed: RADDR=513 DOUT=0x0000
[5407000] READ observed: RADDR=514 DOUT=0x0000
[5407000] BLR beat (bus mode) observed: RADDR=514 DOUT=0x0000
[5409000] BLR beat (bus mode) observed: RADDR=515 DOUT=0x0000
[5409000] READ observed: RADDR=515 DOUT=0x0000
[5411000] READ observed: RADDR=516 DOUT=0x0000
[5411000] BLR beat (bus mode) observed: RADDR=516 DOUT=0x0000
[5413000] BLR beat (bus mode) observed: RADDR=517 DOUT=0x0000
[5413000] READ observed: RADDR=517 DOUT=0x0000
[5413000] MEM: READ decode rank=3 bank=0 row=0 col=17
[5413000] MEM: READ cmd received rank=3 bank=0 row=0 col=17
[5415000] READ observed: RADDR=518 DOUT=0x0000
[5415000] BLR beat (bus mode) observed: RADDR=518 DOUT=0x0000
[5417000] BLR beat (bus mode) observed: RADDR=519 DOUT=0xzzzz
[5417000] READ observed: RADDR=519 DOUT=0xzzzz
[5419000] READ observed: RADDR=519 DOUT=0xzzzz
[5419000] BLR beat (bus mode) observed: RADDR=519 DOUT=0xzzzz
[5461000] MEM: READ beat=1 rank=3 idx=18 data=0x0000
[5463000] MEM: READ beat=2 rank=3 idx=19 data=0x0000
[5465000] MEM: READ beat=3 rank=3 idx=20 data=0x0000
[5467000] MEM: READ beat=4 rank=3 idx=21 data=0x0000
[5469000] MEM: READ beat=5 rank=3 idx=22 data=0x0000
[5471000] MEM: READ beat=6 rank=3 idx=23 data=0x0000
[5473000] MEM: READ beat=7 rank=3 idx=24 data=0x0000
[6525000] REF_MON: First AUTO REFRESH observed.
[11151000] REF_MON: AUTO REFRESH interval = 2313 cycles.
[15777000] REF_MON: AUTO REFRESH interval = 2313 cycles.
[20403000] REF_MON: AUTO REFRESH interval = 2313 cycles.
[25029000] REF_MON: AUTO REFRESH interval = 2313 cycles.
[29655000] REF_MON: AUTO REFRESH interval = 2313 cycles.
[34281000] REF_MON: AUTO REFRESH interval = 2313 cycles.
[38907000] REF_MON: AUTO REFRESH interval = 2313 cycles.
[43533000] REF_MON: AUTO REFRESH interval = 2313 cycles.
[45421000] BLW/BLR sequence OK: base_addr=32 SZ=0 (nwords=8)
[45623000] CTRL: ENQUEUE CMD addr=256 cmd=100 sz=1
[45625000] CTRL: ENQUEUE CMD addr=256 cmd=100 sz=1
[45625000] BLW issued: base_addr=256 SZ=1 (nwords=16)
[45627000] PROT: IDLE sees cmdFIFO non-empty (need_refresh=0)
[45629000] PROT: GETCMD state cnt=2
[45631000] PROT: GETCMD state cnt=1
[45633000] PROT: GETCMD state cnt=0
[45633000] PROT: GETCMD addr=256 cmd=100 sz=1 rank_sel=0
[45663000] DQS_MON: WRITE detected, starting DQS observation window.
[45663000] MEM: WRITE cmd received rank=3 bank=0 row=0 col=128
[45679000] MEM: WRITE burst committed base_idx=0 data=0x0000
[45729000] DQS_MON: window complete, edge_cnt=7.
[45759000] DQS_MON: WRITE detected, starting DQS observation window.
[45759000] MEM: WRITE cmd received rank=3 bank=0 row=0 col=145
[45775000] MEM: WRITE burst committed base_idx=17 data=0x0000
[45825000] DQS_MON: window complete, edge_cnt=7.
[46911000] CTRL: ENQUEUE CMD addr=256 cmd=11 sz=1
[46913000] CTRL: ENQUEUE CMD addr=256 cmd=11 sz=1
[46913000] BLR issued: base_addr=256 SZ=1 (expect 16 beats)
[46915000] PROT: IDLE sees cmdFIFO non-empty (need_refresh=0)
[46917000] PROT: GETCMD state cnt=2
[46919000] PROT: GETCMD state cnt=1
[46921000] PROT: GETCMD state cnt=0
[46921000] PROT: GETCMD addr=256 cmd=11 sz=1 rank_sel=0
[46951000] MEM: READ decode rank=3 bank=0 row=0 col=128
[46951000] MEM: READ cmd received rank=3 bank=0 row=0 col=128
[46999000] MEM: READ beat=1 rank=3 idx=1 data=0x0000
[47001000] MEM: READ beat=2 rank=3 idx=2 data=0x0000
[47003000] MEM: READ beat=3 rank=3 idx=3 data=0x0000
[47005000] MEM: READ beat=4 rank=3 idx=4 data=0x0000
[47007000] MEM: READ beat=5 rank=3 idx=5 data=0x0000
[47009000] MEM: READ beat=6 rank=3 idx=6 data=0x0000
[47011000] MEM: READ beat=7 rank=3 idx=7 data=0x0000
[48159000] REF_MON: AUTO REFRESH interval = 2313 cycles.
[52785000] REF_MON: AUTO REFRESH interval = 2313 cycles.
[57411000] REF_MON: AUTO REFRESH interval = 2313 cycles.
[62037000] REF_MON: AUTO REFRESH interval = 2313 cycles.
[66663000] REF_MON: AUTO REFRESH interval = 2313 cycles.
[71289000] REF_MON: AUTO REFRESH interval = 2313 cycles.
[75915000] REF_MON: AUTO REFRESH interval = 2313 cycles.
[80541000] REF_MON: AUTO REFRESH interval = 2313 cycles.
[85167000] REF_MON: AUTO REFRESH interval = 2313 cycles.
[86915000] BLW/BLR sequence OK: base_addr=256 SZ=1 (nwords=16)
[87117000] CTRL: ENQUEUE CMD addr=384 cmd=100 sz=10
[87119000] CTRL: ENQUEUE CMD addr=384 cmd=100 sz=10
[87119000] BLW issued: base_addr=384 SZ=2 (nwords=24)
[87121000] PROT: IDLE sees cmdFIFO non-empty (need_refresh=0)
[87123000] PROT: GETCMD state cnt=2
[87125000] PROT: GETCMD state cnt=1
[87127000] PROT: GETCMD state cnt=0
[87127000] PROT: GETCMD addr=384 cmd=100 sz=10 rank_sel=0
[87157000] DQS_MON: WRITE detected, starting DQS observation window.
[87157000] MEM: WRITE cmd received rank=3 bank=0 row=0 col=192
[87173000] MEM: WRITE burst committed base_idx=0 data=0x0000
[87223000] DQS_MON: window complete, edge_cnt=7.
[87269000] DQS_MON: WRITE detected, starting DQS observation window.
[87269000] MEM: WRITE cmd received rank=3 bank=0 row=0 col=208
[87285000] MEM: WRITE burst committed base_idx=16 data=0x0000
[87335000] DQS_MON: window complete, edge_cnt=7.
[87381000] DQS_MON: WRITE detected, starting DQS observation window.
[87381000] MEM: WRITE cmd received rank=3 bank=0 row=0 col=225
[87397000] MEM: WRITE burst committed base_idx=1 data=0x0000
[87447000] DQS_MON: window complete, edge_cnt=7.
[88437000] CTRL: ENQUEUE CMD addr=384 cmd=11 sz=10
[88439000] CTRL: ENQUEUE CMD addr=384 cmd=11 sz=10
[88439000] BLR issued: base_addr=384 SZ=2 (expect 24 beats)
[88441000] PROT: IDLE sees cmdFIFO non-empty (need_refresh=0)
[88443000] PROT: GETCMD state cnt=2
[88445000] PROT: GETCMD state cnt=1
[88447000] PROT: GETCMD state cnt=0
[88447000] PROT: GETCMD addr=384 cmd=11 sz=10 rank_sel=0
[88477000] MEM: READ decode rank=3 bank=0 row=0 col=192
[88477000] MEM: READ cmd received rank=3 bank=0 row=0 col=192
[88525000] MEM: READ beat=1 rank=3 idx=1 data=0x0000
[88527000] MEM: READ beat=2 rank=3 idx=2 data=0x0000
[88529000] MEM: READ beat=3 rank=3 idx=3 data=0x0000
[88531000] MEM: READ beat=4 rank=3 idx=4 data=0x0000
[88533000] MEM: READ beat=5 rank=3 idx=5 data=0x0000
[88535000] MEM: READ beat=6 rank=3 idx=6 data=0x0000
[88537000] MEM: READ beat=7 rank=3 idx=7 data=0x0000
[89793000] REF_MON: AUTO REFRESH interval = 2313 cycles.
[94419000] REF_MON: AUTO REFRESH interval = 2313 cycles.
[99045000] REF_MON: AUTO REFRESH interval = 2313 cycles.
[103671000] REF_MON: AUTO REFRESH interval = 2313 cycles.
[108297000] REF_MON: AUTO REFRESH interval = 2313 cycles.
[112923000] REF_MON: AUTO REFRESH interval = 2313 cycles.
[117549000] REF_MON: AUTO REFRESH interval = 2313 cycles.
[122175000] REF_MON: AUTO REFRESH interval = 2313 cycles.
[126801000] REF_MON: AUTO REFRESH interval = 2313 cycles.
[128441000] BLW/BLR sequence OK: base_addr=384 SZ=2 (nwords=24)
[128643000] CTRL: ENQUEUE CMD addr=512 cmd=100 sz=11
[128645000] CTRL: ENQUEUE CMD addr=512 cmd=100 sz=11
[128645000] BLW issued: base_addr=512 SZ=3 (nwords=32)
[128647000] PROT: IDLE sees cmdFIFO non-empty (need_refresh=0)
[128649000] PROT: GETCMD state cnt=2
[128651000] PROT: GETCMD state cnt=1
[128653000] PROT: GETCMD state cnt=0
[128653000] PROT: GETCMD addr=512 cmd=100 sz=11 rank_sel=0
[128683000] DQS_MON: WRITE detected, starting DQS observation window.
[128683000] MEM: WRITE cmd received rank=3 bank=0 row=0 col=256
[128699000] MEM: WRITE burst committed base_idx=0 data=0x0000
[128749000] DQS_MON: window complete, edge_cnt=7.
[128811000] DQS_MON: WRITE detected, starting DQS observation window.
[128811000] MEM: WRITE cmd received rank=3 bank=0 row=0 col=272
[128827000] MEM: WRITE burst committed base_idx=16 data=0x0000
[128877000] DQS_MON: window complete, edge_cnt=7.
[128939000] DQS_MON: WRITE detected, starting DQS observation window.
[128939000] MEM: WRITE cmd received rank=3 bank=0 row=0 col=288
[128955000] MEM: WRITE burst committed base_idx=0 data=0x0000
[129005000] DQS_MON: window complete, edge_cnt=7.
[129067000] DQS_MON: WRITE detected, starting DQS observation window.
[129067000] MEM: WRITE cmd received rank=3 bank=0 row=0 col=305
[129083000] MEM: WRITE burst committed base_idx=17 data=0x0000
[129133000] DQS_MON: window complete, edge_cnt=7.
[129995000] CTRL: ENQUEUE CMD addr=512 cmd=11 sz=11
[129997000] CTRL: ENQUEUE CMD addr=512 cmd=11 sz=11
[129997000] BLR issued: base_addr=512 SZ=3 (expect 32 beats)
[129999000] PROT: IDLE sees cmdFIFO non-empty (need_refresh=0)
[130001000] PROT: GETCMD state cnt=2
[130003000] PROT: GETCMD state cnt=1
[130005000] PROT: GETCMD state cnt=0
[130005000] PROT: GETCMD addr=512 cmd=11 sz=11 rank_sel=0
[130035000] MEM: READ decode rank=3 bank=0 row=0 col=256
[130035000] MEM: READ cmd received rank=3 bank=0 row=0 col=256
[130083000] MEM: READ beat=1 rank=3 idx=1 data=0x0000
[130085000] MEM: READ beat=2 rank=3 idx=2 data=0x0000
[130087000] MEM: READ beat=3 rank=3 idx=3 data=0x0000
[130089000] MEM: READ beat=4 rank=3 idx=4 data=0x0000
[130091000] MEM: READ beat=5 rank=3 idx=5 data=0x0000
[130093000] MEM: READ beat=6 rank=3 idx=6 data=0x0000
[130095000] MEM: READ beat=7 rank=3 idx=7 data=0x0000
[131427000] REF_MON: AUTO REFRESH interval = 2313 cycles.
[136053000] REF_MON: AUTO REFRESH interval = 2313 cycles.
[140679000] REF_MON: AUTO REFRESH interval = 2313 cycles.
[145305000] REF_MON: AUTO REFRESH interval = 2313 cycles.
[149931000] REF_MON: AUTO REFRESH interval = 2313 cycles.
[154557000] REF_MON: AUTO REFRESH interval = 2313 cycles.
[159183000] REF_MON: AUTO REFRESH interval = 2313 cycles.
[163809000] REF_MON: AUTO REFRESH interval = 2313 cycles.
[168435000] REF_MON: AUTO REFRESH interval = 2313 cycles.
[169999000] BLW/BLR sequence OK: base_addr=512 SZ=3 (nwords=32)
[170199000] Starting FIFO stress / refresh-interleaving test...
[170201000] CTRL: ENQUEUE CMD addr=600 cmd=10 sz=0
[170203000] CTRL: ENQUEUE CMD addr=600 cmd=10 sz=0
[170203000] SCW issued: addr=600 data=0xfda7
[170205000] PROT: IDLE sees cmdFIFO non-empty (need_refresh=0)
[170207000] PROT: GETCMD state cnt=2
[170209000] PROT: GETCMD state cnt=1
[170211000] PROT: GETCMD state cnt=0
[170211000] PROT: GETCMD addr=600 cmd=10 sz=0 rank_sel=0
[170227000] DQS_MON: WRITE detected, starting DQS observation window.
[170227000] MEM: WRITE cmd received rank=3 bank=3 row=0 col=289
[170243000] MEM: WRITE burst committed base_idx=97 data=0x0000
[170293000] DQS_MON: window complete, edge_cnt=7.
[170625000] CTRL: ENQUEUE CMD addr=600 cmd=1 sz=0
[170627000] CTRL: ENQUEUE CMD addr=600 cmd=1 sz=0
[170627000] SCR issued: addr=600
[170629000] PROT: IDLE sees cmdFIFO non-empty (need_refresh=0)
[170631000] PROT: GETCMD state cnt=2
[170633000] PROT: GETCMD state cnt=1
[170635000] PROT: GETCMD state cnt=0
[170635000] PROT: GETCMD addr=600 cmd=1 sz=0 rank_sel=0
[170649000] PROT: ISSUE_READ bank=3 row=0 col=144 cs=1 ras=1 cas=1 we=1
[170651000] MEM: READ decode rank=3 bank=3 row=0 col=289
[170651000] MEM: READ cmd received rank=3 bank=3 row=0 col=289
[170699000] MEM: READ beat=1 rank=3 idx=98 data=0x0000
[170701000] MEM: READ beat=2 rank=3 idx=99 data=0x0000
[170703000] READ observed: RADDR=600 DOUT=0x0000
[170703000] MEM: READ beat=3 rank=3 idx=100 data=0x0000
[170705000] READ observed: RADDR=601 DOUT=0x0000
[170705000] MEM: READ beat=4 rank=3 idx=101 data=0x0000
[170707000] READ observed: RADDR=602 DOUT=0x0000
[170707000] MEM: READ beat=5 rank=3 idx=102 data=0x0000
[170709000] MEM: READ beat=6 rank=3 idx=103 data=0x0000
[170711000] MEM: READ beat=7 rank=3 idx=104 data=0x0000
[170807000] CTRL: ENQUEUE CMD addr=700 cmd=100 sz=1
[170809000] CTRL: ENQUEUE CMD addr=700 cmd=100 sz=1
[170809000] BLW issued: base_addr=700 SZ=1 (nwords=16)
[170811000] PROT: IDLE sees cmdFIFO non-empty (need_refresh=0)
[170813000] PROT: GETCMD state cnt=2
[170815000] PROT: GETCMD state cnt=1
[170817000] PROT: GETCMD state cnt=0
[170817000] PROT: GETCMD addr=700 cmd=100 sz=1 rank_sel=0
[170847000] DQS_MON: WRITE detected, starting DQS observation window.
[170847000] MEM: WRITE cmd received rank=3 bank=3 row=0 col=344
[170863000] MEM: WRITE burst committed base_idx=120 data=0x0000
[170913000] DQS_MON: window complete, edge_cnt=7.
[170943000] DQS_MON: WRITE detected, starting DQS observation window.
[170943000] MEM: WRITE cmd received rank=3 bank=3 row=0 col=361
[170959000] MEM: WRITE burst committed base_idx=105 data=0x0000
[171009000] DQS_MON: window complete, edge_cnt=7.
[172095000] CTRL: ENQUEUE CMD addr=700 cmd=11 sz=1
[172097000] CTRL: ENQUEUE CMD addr=700 cmd=11 sz=1
[172097000] BLR issued: base_addr=700 SZ=1 (expect 16 beats)
[172099000] PROT: IDLE sees cmdFIFO non-empty (need_refresh=0)
[172101000] PROT: GETCMD state cnt=2
[172103000] BLR beat (bus mode) observed: RADDR=604 DOUT=0x0000
[172103000] PROT: GETCMD state cnt=1
[172103000] READ observed: RADDR=604 DOUT=0x0000
[172105000] READ observed: RADDR=605 DOUT=0x0000
[172105000] PROT: GETCMD state cnt=0
[172105000] PROT: GETCMD addr=700 cmd=11 sz=1 rank_sel=0
[172105000] BLR beat (bus mode) observed: RADDR=605 DOUT=0x0000
[172107000] BLR beat (bus mode) observed: RADDR=606 DOUT=0x0000
[172107000] READ observed: RADDR=606 DOUT=0x0000
[172109000] READ observed: RADDR=607 DOUT=0xzzzz
[172109000] BLR beat (bus mode) observed: RADDR=607 DOUT=0xzzzz
[172111000] BLR beat (bus mode) observed: RADDR=607 DOUT=0xzzzz
[172111000] READ observed: RADDR=607 DOUT=0xzzzz
[172135000] MEM: READ decode rank=3 bank=3 row=0 col=344
[172135000] MEM: READ cmd received rank=3 bank=3 row=0 col=344
[172183000] MEM: READ beat=1 rank=3 idx=121 data=0x0000
[172185000] MEM: READ beat=2 rank=3 idx=122 data=0x0000
[172187000] MEM: READ beat=3 rank=3 idx=123 data=0x0000
[172189000] MEM: READ beat=4 rank=3 idx=124 data=0x0000
[172191000] MEM: READ beat=5 rank=3 idx=125 data=0x0000
[172193000] MEM: READ beat=6 rank=3 idx=126 data=0x0000
[172195000] MEM: READ beat=7 rank=3 idx=127 data=0x0000
[173061000] REF_MON: AUTO REFRESH interval = 2313 cycles.
[177687000] REF_MON: AUTO REFRESH interval = 2313 cycles.
[182313000] REF_MON: AUTO REFRESH interval = 2313 cycles.
[186939000] REF_MON: AUTO REFRESH interval = 2313 cycles.
[191565000] REF_MON: AUTO REFRESH interval = 2313 cycles.
[196191000] REF_MON: AUTO REFRESH interval = 2313 cycles.
[200817000] REF_MON: AUTO REFRESH interval = 2313 cycles.
[205443000] REF_MON: AUTO REFRESH interval = 2313 cycles.
[210069000] REF_MON: AUTO REFRESH interval = 2313 cycles.
[212113000] BLW/BLR sequence OK: base_addr=700 SZ=1 (nwords=16)
[212315000] CTRL: ENQUEUE CMD addr=601 cmd=10 sz=0
[212317000] CTRL: ENQUEUE CMD addr=601 cmd=10 sz=0
[212317000] SCW issued: addr=601 data=0xfca7
[212319000] PROT: IDLE sees cmdFIFO non-empty (need_refresh=0)
[212321000] PROT: GETCMD state cnt=2
[212323000] PROT: GETCMD state cnt=1
[212325000] PROT: GETCMD state cnt=0
[212325000] PROT: GETCMD addr=601 cmd=10 sz=0 rank_sel=0
[212341000] DQS_MON: WRITE detected, starting DQS observation window.
[212341000] MEM: WRITE cmd received rank=3 bank=3 row=0 col=291
[212357000] MEM: WRITE burst committed base_idx=99 data=0x0000
[212407000] DQS_MON: window complete, edge_cnt=7.
[212739000] CTRL: ENQUEUE CMD addr=601 cmd=1 sz=0
[212741000] CTRL: ENQUEUE CMD addr=601 cmd=1 sz=0
[212741000] SCR issued: addr=601
[212743000] PROT: IDLE sees cmdFIFO non-empty (need_refresh=0)
[212745000] PROT: GETCMD state cnt=2
[212747000] PROT: GETCMD state cnt=1
[212749000] PROT: GETCMD state cnt=0
[212749000] PROT: GETCMD addr=601 cmd=1 sz=0 rank_sel=0
[212763000] PROT: ISSUE_READ bank=3 row=0 col=145 cs=1 ras=1 cas=1 we=1
[212765000] MEM: READ decode rank=3 bank=3 row=0 col=291
[212765000] MEM: READ cmd received rank=3 bank=3 row=0 col=291
[212813000] MEM: READ beat=1 rank=3 idx=100 data=0x0000
[212815000] MEM: READ beat=2 rank=3 idx=101 data=0x0000
[212817000] READ observed: RADDR=601 DOUT=0x0000
[212817000] MEM: READ beat=3 rank=3 idx=102 data=0x0000
[212819000] READ observed: RADDR=602 DOUT=0x0000
[212819000] MEM: READ beat=4 rank=3 idx=103 data=0x0000
[212821000] READ observed: RADDR=603 DOUT=0x0000
[212821000] MEM: READ beat=5 rank=3 idx=104 data=0x0000
[212823000] MEM: READ beat=6 rank=3 idx=105 data=0x0000
[212825000] MEM: READ beat=7 rank=3 idx=106 data=0x0000
[212921000] CTRL: ENQUEUE CMD addr=740 cmd=100 sz=1
